…
  - type
  - year
  - region
  - month

However, region and month are categorical variables that have numerous
levels. Therefore, with all these levels, it is difficult to interpret
their p-values from this model.

``` r
tidy(model)
```

    ## # A tibble: 75 x 5
    ##    term             estimate std.error statistic   p.value
    ##    <chr>               <dbl>     <dbl>     <dbl>     <dbl>
    ##  1 (Intercept)  -114.        4.60        -24.7   2.22e-132
    ##  2 total_volume   -0.0000180 0.0000390    -0.463 6.43e-  1
    ##  3 PLU_4046        0.0000180 0.0000390     0.463 6.43e-  1
    ##  4 PLU_4225        0.0000180 0.0000390     0.462 6.44e-  1
    ##  5 PLU_4770        0.0000181 0.0000390     0.464 6.43e-  1
    ##  6 total_bags     -0.0218    0.0311       -0.701 4.83e-  1
    ##  7 small_bags      0.0218    0.0311        0.702 4.83e-  1
    ##  8 large_bags      0.0218    0.0311        0.702 4.83e-  1
    ##  9 xlarge_bags     0.0218    0.0311        0.702 4.83e-  1
    ## 10 typeorganic     0.491     0.00430     114.    0.       
    ## # … with 65 more rows
…
